pinky,pinky
113.6,70.5
113.8,70.7
114,71.6
115.2,71.6
115.6,71.8
115.7,72.4
116.1,72.5
115.9,72.7
116.1,73
115.7,73
116.5,72.9
116.3,72.6
115.8,73
115.8,73
115.5,73.2
116.1,73.7
116.2,72.8
115.8,72.5
115.7,72.4
115.8,72.5
115.7,71.9
115.3,71.4
114.8,70.8
114.2,70.4
113.8,70
